{
    "artists": {
        "items": [
            {
                "external_urls": {
                    "spotify": "https://open.spotify.com/artist/0FfuujZJUa7Z2JzhhiPI2z"
                },
                "followers": {
                    "href": null,
                    "total": 96088
                },
                "genres": [
                    "german hard rock",
                    "german stoner rock",
                    "psychedelic doom",
                    "retro metal",
                    "space rock",
                    "stoner rock"
                ],
                "href": "https://api.spotify.com/v1/artists/0FfuujZJUa7Z2JzhhiPI2z",
                "id": "0FfuujZJUa7Z2JzhhiPI2z",
                "images": [
                    {
                        "height": 640,
                        "url": "https://i.scdn.co/image/ab6761610000e5ebd34d0809dc218f436e74f094",
                        "width": 640
                    },
                    {
                        "height": 320,
                        "url": "https://i.scdn.co/image/ab67616100005174d34d0809dc218f436e74f094",
                        "width": 320
                    },
                    {
                        "height": 160,
                        "url": "https://i.scdn.co/image/ab6761610000f178d34d0809dc218f436e74f094",
                        "width": 160
                    }
                ],
                "name": "Kadavar",
                "popularity": 44,
                "type": "artist",
                "uri": "spotify:artist:0FfuujZJUa7Z2JzhhiPI2z"
            }
        ],
        "next": null,
        "total": 1,
        "cursors": {
            "after": null
        },
        "limit": 20,
        "href": "https://api.spotify.com/v1/me/following?type=artist&limit=20"
    }
}